
[{
	"model": "project.status",
	"pk": 1,
	"fields": {
		"name": "ONGOING",
		"description": "this project is ongoing "
	}
}, {
	"model": "project.status",
	"pk": 2,
	"fields": {
		"name": "COMPLETED",
		"description": "THIS PROJECT IS COMPLETED AND IN FULL SWIG"
	}
}, {
	"model": "project.status",
	"pk": 3,
	"fields": {
		"name": "HALTED",
		"description": "FOR SOME REASONS THIS PROJECT HAS BEEN HALTED"
	}
}, {
	"model": "project.status",
	"pk": 4,
	"fields": {
		"name": "DELAYED",
		"description": "THIS PROJECT IS CURRENTLY BEING DELYAED"
	}
}, {
	"model": "project.status",
	"pk": 5,
	"fields": {
		"name": "CANCELLED",
		"description": "THIS PROJECT HAS BEEN CANCELLED"
	}
}]
